{
  "project_info": {
    "project_number": "180023498740",
    "firebase_url": "https://danmad.firebaseio.com",
    "project_id": "danmad",
    "storage_bucket": "danmad.appspot.com"
  },
  "client": [
    {
      "client_info": {
        "mobilesdk_app_id": "1:180023498740:android:fb07896ed7f0f2e0d78ba1",
        "android_client_info": {
          "package_name": "com.appsaz.danmad"
        }
      },
      "oauth_client": [
        {
          "client_id": "180023498740-3a8nismv06kv1bd4all59lpg84b772jg.apps.googleusercontent.com",
          "client_type": 3
        }
      ],
      "api_key": [
        {
          "current_key": "AIzaSyDawv9LeoLhfZX7EVzghG7vdvbFKvh3SZI"
        }
      ],
      "services": {
        "appinvite_service": {
          "other_platform_oauth_client": [
            {
              "client_id": "180023498740-3a8nismv06kv1bd4all59lpg84b772jg.apps.googleusercontent.com",
              "client_type": 3
            }
          ]
        }
      }
    }
  ],
  "configuration_version": "1"
}