{
  "cordova-plugin-whitelist": {
    "source": {
      "type": "registry",
      "id": "cordova-plugin-whitelist@^1.3.3"
    },
    "is_top_level": true,
    "variables": {}
  },
  "cordova-plugin-device": {
    "source": {
      "type": "registry",
      "id": "cordova-plugin-device@^2.0.2"
    },
    "is_top_level": true,
    "variables": {}
  },
  "cordova-plugin-ionic-webview": {
    "source": {
      "type": "registry",
      "id": "cordova-plugin-ionic-webview@^1.2.1"
    },
    "is_top_level": true,
    "variables": {}
  },
  "cordova-plugin-ionic-keyboard": {
    "source": {
      "type": "registry",
      "id": "cordova-plugin-ionic-keyboard@^2.1.3"
    },
    "is_top_level": true,
    "variables": {}
  },
  "cordova-plugin-screen-orientation": {
    "source": {
      "type": "registry",
      "id": "cordova-plugin-screen-orientation@^3.0.1"
    },
    "is_top_level": true,
    "variables": {}
  },
  "es6-promise-plugin": {
    "source": {
      "type": "registry",
      "id": "es6-promise-plugin@^4.1.0"
    },
    "is_top_level": false,
    "variables": {}
  },
  "cordova-plugin-inappbrowser": {
    "source": {
      "type": "registry",
      "id": "cordova-plugin-inappbrowser@^3.0.0"
    },
    "is_top_level": true,
    "variables": {}
  },
  "cordova-plugin-x-socialsharing": {
    "source": {
      "type": "registry",
      "id": "cordova-plugin-x-socialsharing@^5.4.4"
    },
    "is_top_level": true,
    "variables": {
      "ANDROID_SUPPORT_V4_VERSION": "24.1.1+"
    }
  },
  "ionic-plugin-deeplinks": {
    "source": {
      "type": "registry",
      "id": "ionic-plugin-deeplinks@^1.0.17"
    },
    "is_top_level": true,
    "variables": {
      "URL_SCHEME": "appsazshop",
      "DEEPLINK_SCHEME": "https",
      "DEEPLINK_HOST": "appsazshop.ir",
      "ANDROID_PATH_PREFIX": "/",
      "ANDROID_2_PATH_PREFIX": "/",
      "ANDROID_3_PATH_PREFIX": "/",
      "ANDROID_4_PATH_PREFIX": "/",
      "ANDROID_5_PATH_PREFIX": "/",
      "DEEPLINK_2_SCHEME": " ",
      "DEEPLINK_2_HOST": " ",
      "DEEPLINK_3_SCHEME": " ",
      "DEEPLINK_3_HOST": " ",
      "DEEPLINK_4_SCHEME": " ",
      "DEEPLINK_4_HOST": " ",
      "DEEPLINK_5_SCHEME": " ",
      "DEEPLINK_5_HOST": " "
    }
  },
  "cordova-plugin-dialogs": {
    "source": {
      "type": "registry",
      "id": "cordova-plugin-dialogs"
    },
    "is_top_level": false,
    "variables": {}
  },
  "cordova-plugin-globalization": {
    "source": {
      "type": "registry",
      "id": "cordova-plugin-globalization"
    },
    "is_top_level": false,
    "variables": {}
  },
  "cordova-plugin-nativestorage": {
    "source": {
      "type": "registry",
      "id": "cordova-plugin-nativestorage"
    },
    "is_top_level": true,
    "variables": {}
  },
  "cordova-plugin-advanced-http": {
    "source": {
      "type": "registry",
      "id": "cordova-plugin-advanced-http@1.11.1"
    },
    "is_top_level": true,
    "variables": {}
  },
  "cordova-plugin-file": {
    "source": {
      "type": "registry",
      "id": "cordova-plugin-file@>=2.0.0"
    },
    "is_top_level": false,
    "variables": {}
  },
  "cordova-plugin-statusbar": {
    "source": {
      "type": "registry",
      "id": "cordova-plugin-statusbar@^2.4.2"
    },
    "is_top_level": true,
    "variables": {}
  },
  "cordova-plugin-network-information": {
    "source": {
      "type": "registry",
      "id": "cordova-plugin-network-information"
    },
    "is_top_level": true,
    "variables": {}
  },
  "cordova-plugin-android-permissions": {
    "source": {
      "type": "registry",
      "id": "cordova-plugin-android-permissions@1.0.0"
    },
    "is_top_level": true,
    "variables": {}
  },
  "mx.ferreyra.callnumber": {
    "source": {
      "type": "registry",
      "id": "call-number@0.0.2"
    },
    "is_top_level": true,
    "variables": {}
  },
  "call-number": {
    "source": {
      "type": "registry",
      "id": "mx.ferreyra.callnumber"
    },
    "is_top_level": true,
    "variables": {}
  },
  "cordova-plugin-market": {
    "source": {
      "type": "registry",
      "id": "cordova-plugin-market"
    },
    "is_top_level": true,
    "variables": {}
  },
  "cordova-plugin-file-transfer": {
    "source": {
      "type": "registry",
      "id": "cordova-plugin-file-transfer"
    },
    "is_top_level": true,
    "variables": {}
  },
  "cordova-plugin-googleplus": {
    "source": {
      "type": "registry",
      "id": "cordova-plugin-googleplus@8.4.0"
    },
    "is_top_level": true,
    "variables": {
      "REVERSED_CLIENT_ID": "180023498740-e6al8dcuatvn19vjbhffsomjnjt94t6m.apps.googleusercontent.com",
      "PLAY_SERVICES_VERSION": "15.0.1"
    }
  },
  "cordova-plugin-fcm-with-dependecy-updated": {
    "source": {
      "type": "registry",
      "id": "cordova-plugin-fcm-with-dependecy-updated"
    },
    "is_top_level": true,
    "variables": {}
  }
}